1098 0
1100 1
1105 2
1108 3
1109 4
1114 5
1115 6
1116 7
1130 8
1142 9
1144 10
1148 11
1149 12
1152 13
1157 14
1159 15
1164 16
1168 17
1179 18
1181 19
1190 20
1191 21
1193 22
1196 23
1202 24
1205 25
1207 26
1209 27
1210 28
1221 29
1232 30
1238 31
1245 32
1246 33
1260 34
1261 35
1295 36
1305 37
1307 38
1320 39
1323 40
1327 41
1332 42
1352 43
1362 44
1363 45
1365 46
1373 47
1374 48
1377 49
1378 50
1383 51
1385 52
1391 53
1393 54
1395 55
1399 56
1401 57
1416 58
1460 59
1469 60
1485 61
1525 62
1535 63
1547 64
1613 65
1625 66
1629 67
1658 68
1660 69
1671 70
1701 71
1702 72
1769 73
1784 74
